Instance;Rule;Selected projects;Vote count;Project count;Number of winners;Similarity to Greedy;Avg cost satisfaction;Category proportionality;Equality (inverted cost gini);Fairness (inverted share gini);Happiness (%non-empty-handed);Median selected cost
288;MES+;36920,36922,36925,36918,36923,37000,36917;3057;14;7;1.0;0.42032122015047435;;0.7063100902620587;0.7026475289213965;0.953222113182859;8400.0
525;MES+;41571,41575,41573,41566,41572,41563,41574,41565;3428;20;8;0.8435761502716146;0.4105674709225731;;0.7314159014714894;0.7349676551126818;0.9737456242707118;15250.0
647;MES+;44261,44458,44258,44267,44269,44259,44270,44253,44256,44264,44262,44255,44268,44266,44260;3190;19;15;0.7543125083787213;0.2880455545512241;0.9267575037286293;0.7844166526182403;0.802770889116506;0.9940438871473354;8000.0
622;MES+;43444,43462,43450,43473,43412,43421,43428,43420,43416,43418,43465,43455,43443,43471,43424,43474;2575;67;16;0.8281169649411367;0.1860905992833194;;0.5510504459631584;0.5930495962465121;0.8986407766990291;10700.0
515;MES+;41291,41297,41290,41293;3140;8;4;0.7407407407407407;0.4634607218683652;;0.7678087030255142;0.733557033202225;0.9856687898089171;5500.0
643;MES+;44251;66;3;1;1.0;0.5297732570459843;0.7440728172456925;0.6060606060606061;0.6060606060606061;0.6060606060606061;5000.0
492;MES+;41112,41117,41121,41129,41114,41123,41137,41124,41126,41115,41135,41113,41119;4528;29;13;0.8687386204852436;0.3041856503975265;;0.6650760541686191;0.6871727376653434;0.9856448763250883;7000.0
179;MES+;15035,15024,15025,15036,15043,15038,15037,15046,15003,15042,15026,15044,15001,15010,15013,15039,15002,15034,15014,15004,15020,15045;219;35;22;1.0;0.4621953789954338;;0.7181114147165737;0.7171562706061271;1.0;7075.0
613;MES+;42426,42422,42412,42440,42448,42436,42443,42427,42411,42449,42423,42450,42410,42417,42416,42444,42425,42434,42442,42437,42441,42431,42446,42430,42420;1961;41;25;0.7718668432292584;0.16831756944143278;0.9442624038054843;0.7085018637562402;0.7493643361364548;0.9688934217236104;9115.0
289;MES+;36955,36952,36949,36931,36951,36957,36943,36932,36942,36946;7045;38;10;0.7965842019339445;0.22740185947480485;;0.595181986353819;0.5893421190970815;0.8733853797019162;8412.5
524;MES+;41640,41626,41638,41632,41634,41630,41622,41628,41629,41624,41623,41637,41639;3162;19;13;0.7505818707932315;0.5173919079390341;;0.7806117415780369;0.7794816454941518;0.978494623655914;8654.0
646;MES+;44417,44419,44404,44403,44401,44397,44414,44406,44410,44405,44396,44402,44409;2324;23;13;0.9188904031300831;0.32466823269498407;0.8737654253674985;0.7524894966460225;0.7794807836892526;0.9978485370051635;10000.0
628;MES+;43924,43927,43937,43940,43918,43948,43951,43919,43949,43947,43935,43939,43944,43933,43930,43943,43923,43921,43931,43926,43932,43950,43941;2472;35;23;0.8617829895671977;0.20035215488998231;0.9577223130214024;0.6750412637681447;0.7182409241940977;0.968042071197411;7671.0
166;MES+;12467,12439,12442,12453,12464,12445,12435,12466,12457,12424,12433,12416,12432,12436,12454,12441,12431,12438,12430,12421,12437,12422,12434,12446,12443,12426,12449,12455,12423,12420;426;52;30;0.963790250474368;0.3000135492957747;;0.6226262346129376;0.6217490779722394;0.9553990610328639;4960.0
335;MES+;38572,38571,38582,38594,38593,38579,38584,38590,38596,38600,38575,38601,38576,38599,38585,38581,38587;5448;34;17;0.9680790210218799;0.30955925660792954;;0.6085325674607088;0.609720663331303;0.9073054331864905;10000.0
287;MES+;36910,36904,36907,37012,37026,36902,36909,36901,36911;6187;19;9;1.0;0.32570504606432843;;0.6878926569538051;0.6449327099801776;0.9652497171488605;12000.0
489;MES+;41066,41053,41059,41058,41072,41061,41079,41070,41080,41060,41068;3978;32;11;0.8863196161983372;0.26857076666765245;;0.6620018746066563;0.7048179208275687;0.9753645047762695;15000.0
619;MES+;43740,43733,43739,43738,43735;865;9;5;1.0;0.5480874913294798;;0.7718857876202581;0.7724798998877704;0.9780346820809248;18000.0
324;MES+;38266,38274,38273,38282,38268,38267;4453;18;6;0.3395585738539898;0.21153304888090427;;0.6394355493736005;0.5185596326240525;0.8506624747361329;5000.0
304;MES+;37345,37349,37351,37344,37354,37363,37342,37359,37357,37366,37337,37347,37338,37343,37365,37348,37346,37350,37361,37355;624;29;20;0.9235716798150847;0.46724166666666667;0.9328807728367609;0.7279328136492712;0.7280401979226707;0.9967948717948718;7325.0
212;MES+;16570,16565,16555,16573,16548,16580,16563,16567,16590,16587,16591,16588,16596,16584;3834;57;14;0.9393426953900449;0.35543727177882106;;0.6879189784427951;0.696697597732362;0.9694835680751174;12661.0
267;MES+;36468,36497,36454,36460,36475,36474,36482,36458,36492,36456,36500,36481,36486,36465,36490;3184;53;15;0.9702242439710349;0.2687117635050251;;0.6080719843173147;0.6019204104636746;0.8492462311557789;11650.0
509;MES+;41226,41235,41236,41234,41228,41230,41239,41242,41229,41240,41225,41220,41238,41223,41222,41218,41237;12283;24;17;0.9129178786976009;0.5502093077152704;0.9059465290838074;0.7964025371795367;0.7886459386235216;0.9996743466579826;14000.0
332;MES+;38535,38552,38566,38522,38531,38550,38518,38569,38563,38528,38536,38551,38542,38539,38515,38554,38558,38546,38567,38568,38555;4984;56;21;1.0;0.27566311597110754;;0.6577865651066082;0.6355606095034185;0.9488362760834671;8297.0
285;MES+;36788,36761,36824,36806,36774,36753,36752,36773,36796,36799,36798,36751,36809,36771,36812,36811,36777,36840,36769,36821,36800,36776,36838,36750,37010,36819,36782,36826,36816,36765,36841;5510;97;31;0.7247247247247247;0.12650013611615243;;0.6101965570274706;0.66555909589128;0.9577132486388384;7000.0
252;MES+;35156,36031,36006,35157,35781,35370,35377,35395,35233,35560,35071,35101,35087,35854,35987,36004,35158,36008,35358,35305,35407,35352,35140,35102,35297,35359,35118,35104,35926,35995,36000,36033,35374,36005;8520;85;34;0.7857572718154463;0.35021645539906104;0.9059896957303878;0.7316321348601748;0.7398399686038544;0.9776995305164319;7750.0
358;MES+;38865,38867,38872,38876,38880,38879,38882,38881,38868,38864,38859,38862,38873,38866,38863,38870,38883,38869,38857,38871,38896,38858,38895,38874;1182;29;24;0.9004625257684317;0.35514587140439935;0.9444014014287574;0.6515803809194858;0.6540701184266745;0.994077834179357;8543.0
309;MES+;37826,37822,37824,37863,37820,37829,37856,37857,37848,37851,37827,37816,37873,37867,37817,37870,37815,37860,37833;14411;58;19;0.7662821364578929;0.32224735248536995;0.8730859632335937;0.7032527484852036;0.7215727524354052;0.9837624037193811;10000.0
490;MES+;41089,41099,41093,41104,41097,41088,41091,41081,41083,41100,41094,41102,41103,41108,41105,41101;2791;31;16;0.4401309635173059;0.23594313949322157;;0.7552211679753905;0.7606558586403895;0.9939089931924041;10000.0
523;MES+;41602,41597,41601;938;7;3;0.7164606842199535;0.46455636563725156;;0.6834306037529889;0.7323477018194984;0.835820895522388;22750.0
604;MES+;42341,42343,42340,42361,42359,42363,42344,42360,42357,42355,42347,42348,42351,42349,42358,42346,42353,42352,42356,42354,42362,42350;2324;24;22;1.0;0.47594673694779116;;0.7060166547628827;0.6736536662119541;0.9995697074010327;11612.5
645;MES+;44452,44436,44427,44449,44439,44422,44430,44451,44424,44438,44443,44432,44426,44433,44437,44453;3908;38;16;0.5049049327621679;0.2065436239246171;0.9058804799640933;0.6911976862954559;0.7191941149080336;0.9764585465711362;11000.0
631;MES+;44472,44484,44504,44467,44517,44506,44473,44499,44474,44501,44491,44494,44516,44519,44485,44497,44505,44520,44496,44489,44466,44468,44495,44521,44464,44488,44512,44510,44493;11519;62;29;0.9088234109942023;0.3720376401307984;0.9259539852325227;0.7305098148621623;0.7285810714080776;0.9947044014237347;6200.0
605;MES+;42318,42337,42321,42330,42319,42331,42327,42335,42338,42328,42329,42334,42324,42333,42326;2037;25;15;0.824752806514038;0.40109013418425793;;0.7299469714561644;0.7143073068360208;0.9774177712322042;12000.0
644;MES+;44361,44376,44392,44358,44393,44367,44384,44379,44377,44359,44356,44363,44371,44372,44370,44355,44381;2742;43;17;0.44949360846641123;0.1775892616875267;0.9581952270907842;0.623795185699269;0.6775523829110726;0.975565280816922;8460.0
621;MES+;43230,43205,43244,43197,43211,43225,43203,43240,43217,43201,43237,43221,43223,43236,43253,43231,43247,43215,43219,43228,43218,43254,43234,43210,43198,43249,43202,43246,43245,43229,43209;10081;60;31;0.8291456391511377;0.45379292817070616;0.9359214990499964;0.7459425731388454;0.7438349382044922;0.9918658863208015;10000.0
417;MES+;40249,40267,40246,40253,40272,40251,40262,40270,40284,40261,40279,40260,40255,40277,40257,40258,40256,40247,40281,40259;9562;39;20;0.9698037242073477;0.47947868298124524;0.8999742087813098;0.7632012321393318;0.7672424735361405;0.9867182597782891;8000.0
491;MES+;41173,41174,41166,41169,41167,41177,41171,41172,41182,41170,41176,41180;3218;18;12;0.8700454840805718;0.3538470696488099;;0.7649491930397015;0.7880281450912101;0.9996892479801118;5950.0
522;MES+;41522,41509,41510,41518,41514;318;15;5;1.0;0.42218238993710694;0.9863108560426472;0.7236825006350021;0.7348527610691079;0.949685534591195;20000.0
